Look up psycholinguistic norms for one or more words — lex_lookup • lexis
…
wide
logical. If TRUE, pivot to wide format (one row per word).
Default FALSE (long format).

    Value

    A tibble. In long format: word, lemma, dataset, dimension, mean, sd,
  n_ratings, scale_min, scale_max. In wide format: word, lemma, then one
  column per dimension.

    Examples

lex_lookup("dog")
#> # A tibble: 27 × 9
#>    word  lemma dataset      dimension   mean    sd n_ratings scale_min scale_max
#>    <chr> <chr> <chr>        <chr>      <dbl> <dbl>     <dbl>     <dbl>     <dbl>
#>  1 dog   dog   aoa          aoa        2.8   1.2          20         1        25
#>  2 dog   dog   boi          boi        6.4   1.26         25         1         7
#>  3 dog   dog   concreteness concreten… 4.85  0.46         27         1         5
#>  4 dog   dog   iconicity    iconicity  2.5   1.90         10         1         7
#>  5 dog   dog   lancaster    lancaster… 4.12  1.27         17         0         5
#>  6 dog   dog   lancaster    lancaster… 0.588 1.18         17         0         5
#>  7 dog   dog   lancaster    lancaster… 3.82  1.51         17         0         5
#>  8 dog   dog   lancaster    lancaster… 0.647 1.32         17         0         5
#>  9 dog   dog   lancaster    lancaster… 2.82  1.91         17         0         5
#> 10 dog   dog   lancaster    lancaster… 4.59  0.870        17         0         5
#> # ℹ 17 more rows
…
