…
## Search and filter

`lex_search()` helps find words by pattern.

``` r

lex_search("^bio", cols = "word")
#> # A tibble: 164 × 2
#>    word         lemma       
#>    <chr>        <chr>       
#>  1 biological   biological  
#>  2 biology      biology     
#>  3 bio          bio         
#>  4 biopsy       biopsy      
#>  5 biography    biography   
#>  6 biologist    biologist   
#>  7 biochemical  biochemical 
#>  8 bionic       bionic      
#>  9 biochemistry biochemistry
#> 10 biographer   biographer  
#> # ℹ 154 more rows
```

`lex_filter()` filters on numeric dimensions.

``` r

lex_filter(concreteness > 4, aoa < 8)
#> # A tibble: 2,515 × 75
#>    word   lemma    aoa   boi concreteness gender_femininity humor imageability
#>    <chr>  <chr>  <dbl> <dbl>        <dbl>             <dbl> <dbl>        <dbl>
#>  1 can    can     4.32  4.88         4.55             NA    NA             416
#>  2 man    man     3.11  5.35         4.79              6.4   2.10          620
#>  3 people people  3.52  6.08         4.82              4.19  2.19          568
#>  4 night  night   3.61  2.13         4.52             NA     1.92           NA
#>  5 talk   talk    3.68  4.07         4.07             NA    NA             467
#>  6 guy    guy     4.11  5.84         4.68              5.85  2.47           NA
#>  7 money  money   5.11  6.29         4.54              4.63  2.25           NA
#>  8 girl   girl    4     5.52         4.85             NA     2.65           NA
#>  9 father father  4.11  6.04         4.52             NA     2.44           NA
#> 10 boy    boy     3.67  4.96         4.76             NA     2.59           NA
#> # ℹ 2,505 more rows
#> # ℹ 67 more variables: lancaster_auditory <dbl>, lancaster_gustatory <dbl>,
#> #   lancaster_haptic <dbl>, lancaster_interoceptive <dbl>,
#> #   lancaster_olfactory <dbl>, lancaster_visual <dbl>,
#> #   lancaster_foot_leg <dbl>, lancaster_hand_arm <dbl>, lancaster_head <dbl>,
#> #   lancaster_mouth <dbl>, lancaster_torso <dbl>, lexdec_rt <dbl>,
#> #   lexdec_naming_rt <dbl>, prevalence_pknown <dbl>, prevalence_score <dbl>, …
```
…
